/bin/sh: 1: node: not found
gyp: Call to 'node -e "require('nan')"' returned exit status 127. while trying to load binding.gyp
gyp ERR! configure error 
gyp ERR! stack Error: `gyp` failed with exit code: 1
gyp ERR! stack     at ChildProcess.onCpExit (/usr/share/node-gyp/lib/configure.js:344:16)
gyp ERR! stack     at ChildProcess.emit (events.js:98:17)
gyp ERR! stack     at Process.ChildProcess._handle.onexit (child_process.js:809:12)
gyp ERR! System Linux 3.16.0-4-amd64
gyp ERR! command "nodejs" "/usr/bin/node-gyp" "rebuild"
gyp ERR! cwd /home/teste/Downloads/projeto-4/peerjs-server-master/node_modules/ws
gyp ERR! node -v v0.10.29
gyp ERR! node-gyp -v v0.12.2
gyp ERR! not ok 
